測試
暫時把NOP及for loop等為了讓馬達轉換方向時有足夠時間放電及機構跟得上換向速度的程式取消了
結果
在
double time_filter = 0.01; // %  感覺像數字愈大愈高頻率波
double refAngle = 0.50;
double fuzzy_input_rule[11]={-1.0, -0.875, -0.75, -0.625, -0.5, 0.0, 0.37, 0.475, 0.6, 0.775, 0.9}; 
double rule[11] = { -1.0, -0.85, -0.7, -0.55, -0.4, 0.0, 0.4, 0.55, 0.7, 0.85, 1.0 };
及多放了500g砝碼
效果看起來還可以, 比0924時正rule一直調不出來好



double time_filter = 0.05; // %  感覺像數字愈大愈高頻率波
定角度震盪沒這麼大   但與手機感測器比差很多  手機3度  濾波完0   
double refAngle = 0.50;
double fuzzy_input_rule[11]={-1.0, -0.875, -0.75, -0.625, -0.5, 0.0, 0.4, 0.525, 0.65, 0.775, 0.9}; 
double rule[11] = { -1.0, -0.85, -0.7, -0.55, -0.4, 0.0, 0.4, 0.55, 0.7, 0.85, 1.0 };


洪學長 T & E  互補濾波使用0.9 gyro 0.1acc

t1
double time_filter = 0.01; // %  感覺像數字愈大愈高頻率波
double refAngle = 0.50;
double fuzzy_input_rule[11]={-1.0, -0.875, -0.75, -0.625, -0.5, 0.0, 0.4, 0.525, 0.65, 0.775, 0.9}; 
double rule[11] = { -1.0, -0.85, -0.7, -0.55, -0.4, 0.0, 0.4, 0.55, 0.7, 0.85, 1.0 };

t2
double time_filter = 0.05; // %  感覺像數字愈大愈高頻率波
double refAngle = 0.50;
double fuzzy_input_rule[11]={-1.0, -0.875, -0.75, -0.625, -0.5, 0.0, 0.4, 0.525, 0.65, 0.775, 0.9}; 
double rule[11] = { -1.0, -0.85, -0.7, -0.55, -0.4, 0.0, 0.4, 0.55, 0.7, 0.85, 1.0 };


double time_filter = 0.05; // %  感覺像數字愈大愈高頻率波
double refAngle = 0.0;
double fuzzy_input_rule[11]={-1.0, -0.875, -0.75, -0.625, -0.5, 0.0, 0.3, 0.425, 0.6, 0.775, 0.9}; 
double rule[11] = { -1.0, -0.85, -0.7, -0.55, -0.4, 0.0, 0.4, 0.55, 0.7, 0.85, 1.0 };

good



由於角度太小時會及時修正
及
馬達死區小+解析度差

在低區動量的時候 速度解析度也是很差



燒入開電注意 amgle  建議先用d0 s  檢查angle



time filter 不管是0.01 or 0.05都會受開啟時的姿態影響

掰  水平校正  起始位置水平啟動後  拿開支架  



2020/09/28 1200pm 目前小節 
time_filter 0.05  (10/11 gyro, 1/11 acc)
外部中斷算vel_L = XXXX / vel_tmp
timer1 判斷是否過慢(ovf) vel = 0
timer2 改為50kHz, 0.5us 40次 = 20us

2020/09/29 2340pm 目前小節 
double time_filter = 0.05; // %  感覺像數字愈大愈高頻率波
double refAngle = 0.5;
double fuzzy_input_rule[11]={-1.0, -0.875, -0.75, -0.625, -0.10, 0.0, 0.20, 0.425, 0.6, 0.775, 0.9}; 
double rule[11] = { -1.0, -0.85, -0.7, -0.55, -0.42, 0.0, 0.5, 0.65, 0.75, 0.85, 1.0 };

平衡實驗使用此數據  bal_data_ver3
平衡實驗戳版本使用此數據  bal_touch_data_ver1


因為是無刷無齒馬達  所以扭力取決於我的電流 

有負號  vel_data_ver1
直接翻正  vel_data_ver2

VIDEO0626、VIDEO0627、VIDEO0629、VIDEO0631其中兩個是bal_data_ver1、bla_data_ver2的影片


2020/10/06 1317pm 目前小節 
平衡不顯示速度是因為正負關係(無齒輪的問題)
速度可顯示速度是因為可藉由只往前將速度全翻正避免因無齒輪的問題產生


2020/10/07 1138am 目前小節 
原
選擇0.005*40=0.2s 更新一次速度
原本想說以0.2秒可完整解析慢到快(4.8rpm->48rpm)
但似乎在平衡模式切換到速度模式時因無法立即解析速度倒置角度有不穩定的狀況


因此改為  (暫定)
1.
放棄一開始的低速, 不管消耗控制器資源直接繼續採用5ms做控制
好處: 只要有更新必可馬上捕捉到最新速度做回授
2.
控制cycle以refVel為主，ex:20rpm, 0.015625/(20/60) = 
好處: 省控制器資源
3.
速度模式時  降低bal的gs or gu or rule or fuzzy_input_rule

4.  應該是最有可能的
切換平衡角度(由速度控制器運算)



如果沒超速前沒有馬上救回來 +-+ 正  重量恆-
如果err 太小 根本走不到外圈

吃飽太閒segway再用速度模式追 Tcurve   理論上開啟動跟切回平衡模式時的角速度會較小 (速度規劃)
這實驗可能比位置實驗還有實際用途

始終認為  花10秒慢慢給到100 翰1秒給到100  兩者所產生的力是不一樣的  不然幹嘛要Tcurve 速度規劃
斜率陡  變化快





#define PI 3.1415926535897932384626433832795
#define HALF_PI 1.5707963267948966192313216916398
#define TWO_PI 6.283185307179586476925286766559
#define DEG_TO_RAD 0.017453292519943295769236907684886
#define RAD_TO_DEG 57.295779513082320876798154814105


下次gitpush  fig、txt、等等 除了程式外的都不push上去
gitlab是用來對程式進行版本控制的工具